{
  "extends": ["tslint:latest", "tslint-config-prettier"],
  "linterOptions": {
    "exclude": ["./types/*", "./serviceWorker.ts"]
  },
  "rulesDirectory": ["tslint-plugin-prettier"],
  "rules": {
    "interface-name": [true, "never-prefix"],
    "no-console": false,
    "object-literal-sort-keys": false,
    "prettier": true
  }
}
